{
 "name": "messages-connector",
 "config": {
    "connector.class": "io.debezium.connector.postgresql.PostgresConnector",
    "tasks.max": "1",
    "database.hostname": "postgres",
    "database.port": "5432",
    "database.user": "postgres",
    "database.password": "postgres",
    "database.dbname" : "test",
    "database.whitelist": "messages",
    "database.server.name": "dbserver1",
    "database.history.kafka.bootstrap.servers": "kafka:29092",
    "database.history.kafka.topic": "schema-changes.messages",

    "key.converter": "org.apache.kafka.connect.json.JsonConverter",
    "value.converter":"org.apache.kafka.connect.json.JsonConverter",
    "key.converter.schemas.enable": false,
    "value.converter.schemas.enable": false
 }
}